%!PS-Adobe-3.0
%%Creator: graphviz version 2.38.0 (20140413.2041)
%%Title: graphname
%%Pages: (atend)
%%BoundingBox: (atend)
%%EndComments
save
%%BeginProlog
/DotDict 200 dict def
DotDict begin

/setupLatin1 {
mark
/EncodingVector 256 array def
 EncodingVector 0

ISOLatin1Encoding 0 255 getinterval putinterval
EncodingVector 45 /hyphen put

% Set up ISO Latin 1 character encoding
/starnetISO {
        dup dup findfont dup length dict begin
        { 1 index /FID ne { def }{ pop pop } ifelse
        } forall
        /Encoding EncodingVector def
        currentdict end definefont
} def
/Times-Roman starnetISO def
/Times-Italic starnetISO def
/Times-Bold starnetISO def
/Times-BoldItalic starnetISO def
/Helvetica starnetISO def
/Helvetica-Oblique starnetISO def
/Helvetica-Bold starnetISO def
/Helvetica-BoldOblique starnetISO def
/Courier starnetISO def
/Courier-Oblique starnetISO def
/Courier-Bold starnetISO def
/Courier-BoldOblique starnetISO def
cleartomark
} bind def

%%BeginResource: procset graphviz 0 0
/coord-font-family /Times-Roman def
/default-font-family /Times-Roman def
/coordfont coord-font-family findfont 8 scalefont def

/InvScaleFactor 1.0 def
/set_scale {
       dup 1 exch div /InvScaleFactor exch def
       scale
} bind def

% styles
/solid { [] 0 setdash } bind def
/dashed { [9 InvScaleFactor mul dup ] 0 setdash } bind def
/dotted { [1 InvScaleFactor mul 6 InvScaleFactor mul] 0 setdash } bind def
/invis {/fill {newpath} def /stroke {newpath} def /show {pop newpath} def} bind def
/bold { 2 setlinewidth } bind def
/filled { } bind def
/unfilled { } bind def
/rounded { } bind def
/diagonals { } bind def
/tapered { } bind def

% hooks for setting color 
/nodecolor { sethsbcolor } bind def
/edgecolor { sethsbcolor } bind def
/graphcolor { sethsbcolor } bind def
/nopcolor {pop pop pop} bind def

/beginpage {	% i j npages
	/npages exch def
	/j exch def
	/i exch def
	/str 10 string def
	npages 1 gt {
		gsave
			coordfont setfont
			0 0 moveto
			(\() show i str cvs show (,) show j str cvs show (\)) show
		grestore
	} if
} bind def

/set_font {
	findfont exch
	scalefont setfont
} def

% draw text fitted to its expected width
/alignedtext {			% width text
	/text exch def
	/width exch def
	gsave
		width 0 gt {
			[] 0 setdash
			text stringwidth pop width exch sub text length div 0 text ashow
		} if
	grestore
} def

/boxprim {				% xcorner ycorner xsize ysize
		4 2 roll
		moveto
		2 copy
		exch 0 rlineto
		0 exch rlineto
		pop neg 0 rlineto
		closepath
} bind def

/ellipse_path {
	/ry exch def
	/rx exch def
	/y exch def
	/x exch def
	matrix currentmatrix
	newpath
	x y translate
	rx ry scale
	0 0 1 0 360 arc
	setmatrix
} bind def

/endpage { showpage } bind def
/showpage { } def

/layercolorseq
	[	% layer color sequence - darkest to lightest
		[0 0 0]
		[.2 .8 .8]
		[.4 .8 .8]
		[.6 .8 .8]
		[.8 .8 .8]
	]
def

/layerlen layercolorseq length def

/setlayer {/maxlayer exch def /curlayer exch def
	layercolorseq curlayer 1 sub layerlen mod get
	aload pop sethsbcolor
	/nodecolor {nopcolor} def
	/edgecolor {nopcolor} def
	/graphcolor {nopcolor} def
} bind def

/onlayer { curlayer ne {invis} if } def

/onlayers {
	/myupper exch def
	/mylower exch def
	curlayer mylower lt
	curlayer myupper gt
	or
	{invis} if
} def

/curlayer 0 def

%%EndResource
%%EndProlog
%%BeginSetup
14 default-font-family set_font
1 setmiterlimit
% /arrowlength 10 def
% /arrowwidth 5 def

% make sure pdfmark is harmless for PS-interpreters other than Distiller
/pdfmark where {pop} {userdict /pdfmark /cleartomark load put} ifelse
% make '<<' and '>>' safe on PS Level 1 devices
/languagelevel where {pop languagelevel}{1} ifelse
2 lt {
    userdict (<<) cvn ([) cvn load put
    userdict (>>) cvn ([) cvn load put
} if

%%EndSetup
setupLatin1
%%Page: 1 1
%%PageBoundingBox: 36 36 606 440
%%PageOrientation: Portrait
0 0 1 beginpage
gsave
36 36 570 404 boxprim clip newpath
1 1 set_scale 0 rotate 40 40 translate
% IF #1
gsave
1 setlinewidth
0 0 0 nodecolor
322 378 29.8 18 ellipse_path stroke
0 0 0 nodecolor
14 /Times-Roman set_font
307 374.3 moveto 30 (IF #1) alignedtext
grestore
% (
gsave
1 setlinewidth
0 0 0 nodecolor
111 306 27 18 ellipse_path stroke
0 0 0 nodecolor
14 /Times-Roman set_font
108.5 302.3 moveto 5 (\() alignedtext
grestore
% IF #1->(
gsave
1 setlinewidth
0 0 0 edgecolor
newpath 294.9 370.12 moveto
260.15 361 198.25 343.74 147 324 curveto
145.16 323.29 143.29 322.53 141.41 321.74 curveto
stroke
0 0 0 edgecolor
newpath 142.65 318.46 moveto
132.09 317.59 lineto
139.81 324.86 lineto
closepath fill
1 setlinewidth
solid
0 0 0 edgecolor
newpath 142.65 318.46 moveto
132.09 317.59 lineto
139.81 324.86 lineto
closepath stroke
grestore
% if
gsave
1 setlinewidth
0 0 0 nodecolor
183 306 27 18 ellipse_path stroke
0 0 0 nodecolor
14 /Times-Roman set_font
178.5 302.3 moveto 9 (if) alignedtext
grestore
% IF #1->if
gsave
1 setlinewidth
0 0 0 edgecolor
newpath 299.67 365.75 moveto
276.16 353.91 239.01 335.2 212.96 322.09 curveto
stroke
0 0 0 edgecolor
newpath 214.42 318.9 moveto
203.91 317.53 lineto
211.27 325.16 lineto
closepath fill
1 setlinewidth
solid
0 0 0 edgecolor
newpath 214.42 318.9 moveto
203.91 317.53 lineto
211.27 325.16 lineto
closepath stroke
grestore
% BOOL #9
gsave
1 setlinewidth
0 0 0 nodecolor
274 306 46.29 18 ellipse_path stroke
0 0 0 nodecolor
14 /Times-Roman set_font
246.5 302.3 moveto 55 (BOOL #9) alignedtext
grestore
% IF #1->BOOL #9
gsave
1 setlinewidth
0 0 0 edgecolor
newpath 311.11 361.12 moveto
305.26 352.59 297.92 341.89 291.32 332.25 curveto
stroke
0 0 0 edgecolor
newpath 294.06 330.07 moveto
285.52 323.8 lineto
288.29 334.02 lineto
closepath fill
1 setlinewidth
solid
0 0 0 edgecolor
newpath 294.06 330.07 moveto
285.52 323.8 lineto
288.29 334.02 lineto
closepath stroke
grestore
% E #4  
gsave
1 setlinewidth
0 0 0 nodecolor
371 306 32.49 18 ellipse_path stroke
0 0 0 nodecolor
14 /Times-Roman set_font
354 302.3 moveto 34 (E #4  ) alignedtext
grestore
% IF #1->E #4  
gsave
1 setlinewidth
0 0 0 edgecolor
newpath 333.12 361.12 moveto
339.23 352.38 346.95 341.35 353.83 331.54 curveto
stroke
0 0 0 edgecolor
newpath 356.72 333.51 moveto
359.59 323.31 lineto
350.98 329.49 lineto
closepath fill
1 setlinewidth
solid
0 0 0 edgecolor
newpath 356.72 333.51 moveto
359.59 323.31 lineto
350.98 329.49 lineto
closepath stroke
grestore
% E #4   
gsave
1 setlinewidth
0 0 0 nodecolor
456 306 34.39 18 ellipse_path stroke
0 0 0 nodecolor
14 /Times-Roman set_font
437.5 302.3 moveto 37 (E #4   ) alignedtext
grestore
% IF #1->E #4   
gsave
1 setlinewidth
0 0 0 edgecolor
newpath 343.83 365.6 moveto
365.4 354.33 398.66 336.95 423.37 324.05 curveto
stroke
0 0 0 edgecolor
newpath 425.13 327.07 moveto
432.38 319.34 lineto
421.89 320.87 lineto
closepath fill
1 setlinewidth
solid
0 0 0 edgecolor
newpath 425.13 327.07 moveto
432.38 319.34 lineto
421.89 320.87 lineto
closepath stroke
grestore
% )
gsave
1 setlinewidth
0 0 0 nodecolor
535 306 27 18 ellipse_path stroke
0 0 0 nodecolor
14 /Times-Roman set_font
532.5 302.3 moveto 5 (\)) alignedtext
grestore
% IF #1->)
gsave
1 setlinewidth
0 0 0 edgecolor
newpath 349.11 370.24 moveto
384.21 361.18 447.03 343.92 499 324 curveto
500.84 323.29 502.72 322.54 504.6 321.74 curveto
stroke
0 0 0 edgecolor
newpath 506.19 324.87 moveto
513.91 317.61 lineto
503.35 318.47 lineto
closepath fill
1 setlinewidth
solid
0 0 0 edgecolor
newpath 506.19 324.87 moveto
513.91 317.61 lineto
503.35 318.47 lineto
closepath stroke
grestore
% REL #8
gsave
1 setlinewidth
0 0 0 nodecolor
208 234 38.19 18 ellipse_path stroke
0 0 0 nodecolor
14 /Times-Roman set_font
186.5 230.3 moveto 43 (REL #8) alignedtext
grestore
% BOOL #9->REL #8
gsave
1 setlinewidth
0 0 0 edgecolor
newpath 258.69 288.76 moveto
250.07 279.62 239.17 268.06 229.69 258 curveto
stroke
0 0 0 edgecolor
newpath 232.18 255.54 moveto
222.77 250.67 lineto
227.08 260.34 lineto
closepath fill
1 setlinewidth
solid
0 0 0 edgecolor
newpath 232.18 255.54 moveto
222.77 250.67 lineto
227.08 260.34 lineto
closepath stroke
grestore
%  CONST #2
gsave
1 setlinewidth
0 0 0 nodecolor
371 234 53.09 18 ellipse_path stroke
0 0 0 nodecolor
14 /Times-Roman set_font
338 230.3 moveto 66 ( CONST #2) alignedtext
grestore
% E #4  -> CONST #2
gsave
1 setlinewidth
0 0 0 edgecolor
newpath 371 287.7 moveto
371 279.98 371 270.71 371 262.11 curveto
stroke
0 0 0 edgecolor
newpath 374.5 262.1 moveto
371 252.1 lineto
367.5 262.1 lineto
closepath fill
1 setlinewidth
solid
0 0 0 edgecolor
newpath 374.5 262.1 moveto
371 252.1 lineto
367.5 262.1 lineto
closepath stroke
grestore
%  CONST #2 
gsave
1 setlinewidth
0 0 0 nodecolor
498 234 55.79 18 ellipse_path stroke
0 0 0 nodecolor
14 /Times-Roman set_font
463 230.3 moveto 70 ( CONST #2 ) alignedtext
grestore
% E #4   -> CONST #2 
gsave
1 setlinewidth
0 0 0 edgecolor
newpath 465.95 288.41 moveto
470.9 280.16 476.99 270.01 482.53 260.78 curveto
stroke
0 0 0 edgecolor
newpath 485.68 262.33 moveto
487.83 251.96 lineto
479.68 258.73 lineto
closepath fill
1 setlinewidth
solid
0 0 0 edgecolor
newpath 485.68 262.33 moveto
487.83 251.96 lineto
479.68 258.73 lineto
closepath stroke
grestore
%  (
gsave
1 setlinewidth
0 0 0 nodecolor
27 162 27 18 ellipse_path stroke
0 0 0 nodecolor
14 /Times-Roman set_font
22.5 158.3 moveto 9 ( \() alignedtext
grestore
% REL #8-> (
gsave
1 setlinewidth
0 0 0 edgecolor
newpath 177.7 222.82 moveto
148.15 212.69 102.07 196.33 63 180 curveto
61.18 179.24 59.32 178.44 57.45 177.62 curveto
stroke
0 0 0 edgecolor
newpath 58.73 174.35 moveto
48.18 173.39 lineto
55.83 180.72 lineto
closepath fill
1 setlinewidth
solid
0 0 0 edgecolor
newpath 58.73 174.35 moveto
48.18 173.39 lineto
55.83 180.72 lineto
closepath stroke
grestore
% <
gsave
1 setlinewidth
0 0 0 nodecolor
99 162 27 18 ellipse_path stroke
0 0 0 nodecolor
14 /Times-Roman set_font
94.5 158.3 moveto 9 (<) alignedtext
grestore
% REL #8-><
gsave
1 setlinewidth
0 0 0 edgecolor
newpath 186.2 219 moveto
169.01 207.96 144.93 192.5 126.43 180.62 curveto
stroke
0 0 0 edgecolor
newpath 128.15 177.56 moveto
117.85 175.11 lineto
124.37 183.45 lineto
closepath fill
1 setlinewidth
solid
0 0 0 edgecolor
newpath 128.15 177.56 moveto
117.85 175.11 lineto
124.37 183.45 lineto
closepath stroke
grestore
% E #4
gsave
1 setlinewidth
0 0 0 nodecolor
171 162 27.1 18 ellipse_path stroke
0 0 0 nodecolor
14 /Times-Roman set_font
158 158.3 moveto 26 (E #4) alignedtext
grestore
% REL #8->E #4
gsave
1 setlinewidth
0 0 0 edgecolor
newpath 199.23 216.41 moveto
194.81 208.04 189.35 197.71 184.41 188.37 curveto
stroke
0 0 0 edgecolor
newpath 187.47 186.68 moveto
179.71 179.47 lineto
181.28 189.95 lineto
closepath fill
1 setlinewidth
solid
0 0 0 edgecolor
newpath 187.47 186.68 moveto
179.71 179.47 lineto
181.28 189.95 lineto
closepath stroke
grestore
% E #4 
gsave
1 setlinewidth
0 0 0 nodecolor
246 162 29.8 18 ellipse_path stroke
0 0 0 nodecolor
14 /Times-Roman set_font
231 158.3 moveto 30 (E #4 ) alignedtext
grestore
% REL #8->E #4 
gsave
1 setlinewidth
0 0 0 edgecolor
newpath 217.01 216.41 moveto
221.55 208.04 227.16 197.71 232.23 188.37 curveto
stroke
0 0 0 edgecolor
newpath 235.36 189.93 moveto
237.06 179.47 lineto
229.21 186.59 lineto
closepath fill
1 setlinewidth
solid
0 0 0 edgecolor
newpath 235.36 189.93 moveto
237.06 179.47 lineto
229.21 186.59 lineto
closepath stroke
grestore
%  )
gsave
1 setlinewidth
0 0 0 nodecolor
321 162 27 18 ellipse_path stroke
0 0 0 nodecolor
14 /Times-Roman set_font
316.5 158.3 moveto 9 ( \)) alignedtext
grestore
% REL #8-> )
gsave
1 setlinewidth
0 0 0 edgecolor
newpath 230.33 219.17 moveto
248.32 208.03 273.71 192.29 293.05 180.31 curveto
stroke
0 0 0 edgecolor
newpath 295.07 183.18 moveto
301.73 174.94 lineto
291.39 177.23 lineto
closepath fill
1 setlinewidth
solid
0 0 0 edgecolor
newpath 295.07 183.18 moveto
301.73 174.94 lineto
291.39 177.23 lineto
closepath stroke
grestore
% CONST #2 
gsave
1 setlinewidth
0 0 0 nodecolor
147 90 53.09 18 ellipse_path stroke
0 0 0 nodecolor
14 /Times-Roman set_font
114 86.3 moveto 66 (CONST #2 ) alignedtext
grestore
% E #4->CONST #2 
gsave
1 setlinewidth
0 0 0 edgecolor
newpath 165.19 144.05 moveto
162.49 136.18 159.21 126.62 156.19 117.79 curveto
stroke
0 0 0 edgecolor
newpath 159.48 116.6 moveto
152.92 108.28 lineto
152.86 118.87 lineto
closepath fill
1 setlinewidth
solid
0 0 0 edgecolor
newpath 159.48 116.6 moveto
152.92 108.28 lineto
152.86 118.87 lineto
closepath stroke
grestore
%  $dec 
gsave
1 setlinewidth
0 0 0 nodecolor
147 18 32.49 18 ellipse_path stroke
0 0 0 nodecolor
14 /Times-Roman set_font
130 14.3 moveto 34 ( $dec ) alignedtext
grestore
% CONST #2 -> $dec 
gsave
1 setlinewidth
0 0 0 edgecolor
newpath 147 71.7 moveto
147 63.98 147 54.71 147 46.11 curveto
stroke
0 0 0 edgecolor
newpath 150.5 46.1 moveto
147 36.1 lineto
143.5 46.1 lineto
closepath fill
1 setlinewidth
solid
0 0 0 edgecolor
newpath 150.5 46.1 moveto
147 36.1 lineto
143.5 46.1 lineto
closepath stroke
grestore
% CONST #3
gsave
1 setlinewidth
0 0 0 nodecolor
269 90 50.89 18 ellipse_path stroke
0 0 0 nodecolor
14 /Times-Roman set_font
238 86.3 moveto 62 (CONST #3) alignedtext
grestore
% E #4 ->CONST #3
gsave
1 setlinewidth
0 0 0 edgecolor
newpath 251.57 144.05 moveto
254.16 136.18 257.3 126.62 260.2 117.79 curveto
stroke
0 0 0 edgecolor
newpath 263.53 118.87 moveto
263.32 108.28 lineto
256.88 116.68 lineto
closepath fill
1 setlinewidth
solid
0 0 0 edgecolor
newpath 263.53 118.87 moveto
263.32 108.28 lineto
256.88 116.68 lineto
closepath stroke
grestore
% $zero
gsave
1 setlinewidth
0 0 0 nodecolor
269 18 30.59 18 ellipse_path stroke
0 0 0 nodecolor
14 /Times-Roman set_font
253.5 14.3 moveto 31 ($zero) alignedtext
grestore
% CONST #3->$zero
gsave
1 setlinewidth
0 0 0 edgecolor
newpath 269 71.7 moveto
269 63.98 269 54.71 269 46.11 curveto
stroke
0 0 0 edgecolor
newpath 272.5 46.1 moveto
269 36.1 lineto
265.5 46.1 lineto
closepath fill
1 setlinewidth
solid
0 0 0 edgecolor
newpath 272.5 46.1 moveto
269 36.1 lineto
265.5 46.1 lineto
closepath stroke
grestore
%  $dec
gsave
1 setlinewidth
0 0 0 nodecolor
396 162 29.8 18 ellipse_path stroke
0 0 0 nodecolor
14 /Times-Roman set_font
381 158.3 moveto 30 ( $dec) alignedtext
grestore
%  CONST #2-> $dec
gsave
1 setlinewidth
0 0 0 edgecolor
newpath 377.05 216.05 moveto
379.91 208.06 383.38 198.33 386.57 189.4 curveto
stroke
0 0 0 edgecolor
newpath 389.94 190.38 moveto
390 179.79 lineto
383.34 188.03 lineto
closepath fill
1 setlinewidth
solid
0 0 0 edgecolor
newpath 389.94 190.38 moveto
390 179.79 lineto
383.34 188.03 lineto
closepath stroke
grestore
% $dec 
gsave
1 setlinewidth
0 0 0 nodecolor
498 162 29.8 18 ellipse_path stroke
0 0 0 nodecolor
14 /Times-Roman set_font
483 158.3 moveto 30 ($dec ) alignedtext
grestore
%  CONST #2 ->$dec 
gsave
1 setlinewidth
0 0 0 edgecolor
newpath 498 215.7 moveto
498 207.98 498 198.71 498 190.11 curveto
stroke
0 0 0 edgecolor
newpath 501.5 190.1 moveto
498 180.1 lineto
494.5 190.1 lineto
closepath fill
1 setlinewidth
solid
0 0 0 edgecolor
newpath 501.5 190.1 moveto
498 180.1 lineto
494.5 190.1 lineto
closepath stroke
grestore
endpage
showpage
grestore
%%PageTrailer
%%EndPage: 1
%%Trailer
%%Pages: 1
%%BoundingBox: 36 36 606 440
end
restore
%%EOF
